<?xml version="1.0" encoding="utf-8"?>
<!-- Generator: Adobe Illustrator 16.0.0, SVG Export Plug-In . SVG Version: 6.00 Build 0)  -->
<!DOCTYPE svg PUBLIC "-//W3C//DTD SVG 1.1//EN" "http://www.w3.org/Graphics/SVG/1.1/DTD/svg11.dtd">
<svg version="1.1" id="Layer_1" xmlns="http://www.w3.org/2000/svg" xmlns:xlink="http://www.w3.org/1999/xlink" x="0px" y="0px"
	 width="504.167px" height="124.917px" viewBox="0 0 504.167 124.917" enable-background="new 0 0 504.167 124.917"
	 xml:space="preserve">
<rect x="275.5" y="38.667" fill="#205EAC" width="14" height="56"/>
<rect x="298.5" y="53.667" fill="#205EAC" width="13" height="41"/>
<rect x="298.5" y="38.667" fill="#205EAC" width="13" height="10"/>
<polygon fill="#205EAC" points="346.375,71.042 360.25,53.667 344.5,53.667 333.5,69.25 333.5,38.667 320.5,38.667 320.5,94.667 
	333.5,94.667 333.5,79.042 335.662,77.698 345.625,94.667 361.75,94.667 "/>
<polygon fill="#205EAC" points="253.618,65.531 272.625,40.667 256.5,40.667 240.5,63.255 240.5,40.667 225.5,40.667 225.5,94.667 
	240.5,94.667 240.5,75.792 242.012,72.93 257,94.667 273.625,94.667 "/>
<polygon fill="#205EAC" points="481.188,53.667 472.597,76.691 465.5,53.667 451.5,53.667 466.613,92.729 460.667,108.667 
	474.583,108.667 494.5,53.667 "/>
<path fill="#205EAC" d="M392.5,40.667h-13h-5h-9v54h14V76.673l13.125-0.006c0.375,0.125,13.75-1.5,14-17.625
	S392.5,40.667,392.5,40.667z M387.567,67.032l-8.067,0.117V50.667h7.969c0,0,6.606,0.912,6.492,8.324
	C393.846,66.403,387.74,67.089,387.567,67.032z"/>
<path fill="#205EAC" d="M439.875,53.667c-9.5-3.5-23.375-0.375-26.375,0.625v10.375c0,0,20-8.875,21,3V67.7
	c-5.379,0.165-18.795,1.127-21.875,6.592c-3.875,6.875-1.75,15.125,1.5,17.75c3.122,2.522,10.285,5.73,20.375-0.45v4.075h13v-28
	C447.5,67.667,449.375,57.167,439.875,53.667z M435.5,84.354c-0.018,0.346-3.472,1.708-3.81,1.821
	c-0.75,0.25-1.527,0.423-2.314,0.496c-1.773,0.164-3.62-0.176-5.102-1.21c-1.377-0.961-1.811-3.07-1.642-4.614
	c0.303-2.752,2.604-4.05,5.079-4.574c2.322-0.491,5.419-0.635,7.788-0.61C435.5,75.663,435.5,84.354,435.5,84.354z"/>
<g>
	<path fill="#205EAC" d="M211.167,94.667l-6.29-71h-24.702h-8.725l-9.739,17h3.5l-17.094,36.67l-7.659,16.33h7.659h15.318l4.87-12
		h11.869h6.324v13H211.167z M180.176,66.667h-6.29l6.308-12.468l6.307-12.467v24.935H180.176z"/>
	<path fill="#205EAC" d="M92.451,40.057c0.355-2.079,0.355-4.109,0-6.036c-1.116-6.239-5.935-11.312-15.014-11.463L64.96,22.304
		l-21.608-0.456l-10.093,19.58l4.514-0.764L25.599,93.667h34.846c1.522,0,2.993,0.256,4.515-0.049
		c16.383-3.246,32.462-22.722,16.333-38.396C87.582,51.875,91.487,46.042,92.451,40.057z M64.96,76.564
		c-0.863,0.608-1.827,1.102-2.79,1.102H49.641l4.16-17h9.383c0.66,0,1.268,0.441,1.776,0.543
		C72.416,62.63,69.779,73.369,64.96,76.564z M68.054,50.667H64.96h-8.725l3.5-14h5.225h5.173
		C75.663,36.667,74.952,50.667,68.054,50.667z"/>
	<path fill="#205EAC" d="M111.403,59.89c1.268-11.412,23.586-21.252,38.701-10.449l1.014-2.434l7.659-18.159l-7.659-4.261
		l-8.014-4.463l-1.369,4.159c-9.282,0.71-33.73-7.709-48.795,29.724c-1.319,3.347-2.283,6.948-2.739,10.651
		c-0.304,2.689-0.304,5.377,0,8.015c1.775,14.152,13.644,26.274,44.23,22.876l7.964-21.303
		C119.215,81.447,110.135,71.81,111.403,59.89z"/>
</g>
</svg>
